AAR,FUND,TYPE,PROVE_ID,KATEGORI,ORIGIN,N,n_ESC,pct_ESC,ESC_phenotype
2015,ESC E. coli,Food,15073334,Beef,Import,166,6,4%,ESBL
2015,ESC E. coli,Food,15073360,Pork,Danish,239,4,2%,AmpC
2015,ESC E. coli,Food,15076331,Pork,Danish,239,4,2%,ESBL
2015,ESC E. coli,Animal,15078257,Pigs,Danish,273,78,29%,AmpC
2015,ESC E. coli,Animal,15078259,Pigs,Danish,273,78,29%,AmpC
2015,ESC E. coli,Animal,15078279,Pigs,Danish,273,78,29%,ESBL
2015,ESC E. coli,Animal,15078283,Pigs,Danish,273,78,29%,AmpC
2015,ESC E. coli,Animal,15078284,Pigs,Danish,273,78,29%,AmpC
2015,ESC E. coli,Animal,15078285,Pigs,Danish,273,78,29%,ESBL
2015,ESC E. coli,Animal,15078479,Pigs,Danish,273,78,29%,ESBL
2015,ESC E. coli,Animal,15078483,Pigs,Danish,273,78,29%,AmpC
2015,ESC E. coli,Animal,15079197,Cattle,Danish,180,14,8%,ESBL
2015,ESC E. coli,Food,15079715,Beef,Import,166,6,4%,ESBL
2015,ESC E. coli,Animal,15079951,Pigs,Danish,273,78,29%,AmpC
2015,ESC E. coli,Animal,15079953,Pigs,Danish,273,78,29%,AmpC
2015,ESC E. coli,Animal,15080719,Cattle,Danish,180,14,8%,ESBL
2015,ESC E. coli,Animal,15080851,Pigs,Danish,273,78,29%,AmpC
2015,ESC E. coli,Animal,15082472,Pigs,Danish,273,78,29%,ESBL
2015,ESC E. coli,Animal,15082474,Pigs,Danish,273,78,29%,AmpC
2015,ESC E. coli,Animal,15083178,Pigs,Danish,273,78,29%,AmpC
2015,ESC E. coli,Animal,15083180,Pigs,Danish,273,78,29%,ESBL
2015,ESC E. coli,Animal,15083185,Pigs,Danish,273,78,29%,ESBL
2015,ESC E. coli,Animal,15083204,Pigs,Danish,273,78,29%,ESBL
2015,ESC E. coli,Animal,15083205,Pigs,Danish,273,78,29%,AmpC
2015,ESC E. coli,Animal,15083210,Pigs,Danish,273,78,29%,AmpC
2015,ESC E. coli,Animal,15083211,Pigs,Danish,273,78,29%,AmpC
2015,ESC E. coli,Animal,15083216,Pigs,Danish,273,78,29%,AmpC
2015,ESC E. coli,Animal,15083221,Pigs,Danish,273,78,29%,AmpC
2015,ESC E. coli,Animal,15083222,Pigs,Danish,273,78,29%,AmpC
2015,ESC E. coli,Animal,15083224,Pigs,Danish,273,78,29%,ESBL
2015,ESC E. coli,Animal,15083253,Cattle,Danish,180,14,8%,AmpC
2015,ESC E. coli,Animal,15084084,Pigs,Danish,273,78,29%,ESBL
2015,ESC E. coli,Animal,15084086,Pigs,Danish,273,78,29%,AmpC
2015,ESC E. coli,Animal,15085377,Pigs,Danish,273,78,29%,ESBL
2015,ESC E. coli,Animal,15085380,Pigs,Danish,273,78,29%,AmpC
2015,ESC E. coli,Animal,15085381,Pigs,Danish,273,78,29%,AmpC
2015,ESC E. coli,Animal,15085382,Pigs,Danish,273,78,29%,AmpC
2015,ESC E. coli,Food,15086597,Beef,Import,166,6,4%,ESBL
2015,ESC E. coli,Food,15086604,Pork,Danish,239,4,2%,AmpC
2015,ESC E. coli,Food,15086612,Pork,Import,50,1,2%,ESBL
2015,ESC E. coli,Animal,15087479,Pigs,Danish,273,78,29%,AmpC
2015,ESC E. coli,Food,15088175,Beef,Import,166,6,4%,ESBL
2015,ESC E. coli,Animal,15089122,Pigs,Danish,273,78,29%,AmpC
2015,ESC E. coli,Animal,15089123,Pigs,Danish,273,78,29%,AmpC
2015,ESC E. coli,Animal,15089666,Pigs,Danish,273,78,29%,AmpC
2015,ESC E. coli,Animal,15090169,Pigs,Danish,273,78,29%,AmpC
2015,ESC E. coli,Animal,15090171,Pigs,Danish,273,78,29%,AmpC
2015,ESC E. coli,Animal,15090172,Pigs,Danish,273,78,29%,ESBL
2015,ESC E. coli,Animal,15090173,Pigs,Danish,273,78,29%,AmpC
2015,ESC E. coli,Animal,15090204,Pigs,Danish,273,78,29%,AmpC
2015,ESC E. coli,Animal,15090206,Pigs,Danish,273,78,29%,AmpC
2015,ESC E. coli,Animal,15090208,Pigs,Danish,273,78,29%,AmpC
2015,ESC E. coli,Animal,15091340,Cattle,Danish,180,14,8%,AmpC
2015,ESC E. coli,Animal,15092881,Cattle,Danish,180,14,8%,ESBL
2015,ESC E. coli,Animal,15093352,Pigs,Danish,273,78,29%,AmpC
2015,ESC E. coli,Animal,15093354,Pigs,Danish,273,78,29%,AmpC
2015,ESC E. coli,Animal,15093648,Pigs,Danish,273,78,29%,AmpC
2015,ESC E. coli,Animal,15093651,Pigs,Danish,273,78,29%,AmpC
2015,ESC E. coli,Animal,15093653,Pigs,Danish,273,78,29%,AmpC
2015,ESC E. coli,Animal,15094677,Cattle,Danish,180,14,8%,AmpC
2015,ESC E. coli,Animal,15094687,Cattle,Danish,180,14,8%,ESBL
2015,ESC E. coli,Food,15095098,Beef,Import,166,6,4%,ESBL
2015,ESC E. coli,Animal,15095383,Pigs,Danish,273,78,29%,Other
2015,ESC E. coli,Animal,15095670,Pigs,Danish,273,78,29%,ESBL
2015,ESC E. coli,Animal,15097557,Pigs,Danish,273,78,29%,AmpC
2015,ESC E. coli,Animal,15097558,Pigs,Danish,273,78,29%,AmpC
2015,ESC E. coli,Animal,15097577,Pigs,Danish,273,78,29%,ESBL
2015,ESC E. coli,Animal,15097579,Pigs,Danish,273,78,29%,AmpC
2015,ESC E. coli,Animal,15097580,Pigs,Danish,273,78,29%,AmpC
2015,ESC E. coli,Animal,15097616,Pigs,Danish,273,78,29%,AmpC
2015,ESC E. coli,Animal,15097617,Pigs,Danish,273,78,29%,AmpC
2015,ESC E. coli,Animal,15098887,Cattle,Danish,180,14,8%,ESBL
2015,ESC E. coli,Animal,15100418,Cattle,Danish,180,14,8%,AmpC
2015,ESC E. coli,Animal,15100708,Pigs,Danish,273,78,29%,AmpC
2015,ESC E. coli,Animal,15100710,Pigs,Danish,273,78,29%,AmpC
2015,ESC E. coli,Animal,15101402,Pigs,Danish,273,78,29%,AmpC
2015,ESC E. coli,Animal,15101403,Pigs,Danish,273,78,29%,AmpC
2015,ESC E. coli,Animal,15102768,Cattle,Danish,180,14,8%,Other
2015,ESC E. coli,Food,15103321,Beef,Import,166,6,4%,ESBL
2015,ESC E. coli,Food,15103372,Beef,Danish,149,2,1%,ESBL
2015,ESC E. coli,Animal,15104250,Cattle,Danish,180,14,8%,AmpC
2015,ESC E. coli,Animal,15104342,Pigs,Danish,273,78,29%,ESBL
2015,ESC E. coli,Animal,15104344,Pigs,Danish,273,78,29%,AmpC
2015,ESC E. coli,Animal,15105279,Pigs,Danish,273,78,29%,AmpC
2015,ESC E. coli,Animal,15105280,Pigs,Danish,273,78,29%,AmpC
2015,ESC E. coli,Animal,15105800,Pigs,Danish,273,78,29%,AmpC
2015,ESC E. coli,Animal,15105802,Pigs,Danish,273,78,29%,ESBL
2015,ESC E. coli,Animal,15106535,Pigs,Danish,273,78,29%,ESBL
2015,ESC E. coli,Animal,15108571,Pigs,Danish,273,78,29%,AmpC
2015,ESC E. coli,Animal,15108573,Pigs,Danish,273,78,29%,AmpC
2015,ESC E. coli,Animal,15108578,Pigs,Danish,273,78,29%,AmpC
2015,ESC E. coli,Animal,15108606,Pigs,Danish,273,78,29%,AmpC
2015,ESC E. coli,Animal,15108607,Pigs,Danish,273,78,29%,AmpC
2015,ESC E. coli,Animal,15110652,Cattle,Danish,180,14,8%,ESBL
2015,ESC E. coli,Food,15111153,Pork,Danish,239,4,2%,ESBL
2015,ESC E. coli,Animal,15114811,Pigs,Danish,273,78,29%,ESBL
2015,ESC E. coli,Animal,15116656,Pigs,Danish,273,78,29%,AmpC
2015,ESC E. coli,Animal,15116657,Pigs,Danish,273,78,29%,ESBL
2015,ESC E. coli,Animal,15116853,Cattle,Danish,180,14,8%,AmpC
2015,ESC E. coli,Animal,15116854,Cattle,Danish,180,14,8%,AmpC
2015,ESC E. coli,Animal,15122046,Pigs,Danish,273,78,29%,AmpC
2015,ESC E. coli,Food,15122578,Beef,Danish,149,2,1%,ESBL
2015,ESC E. coli,Animal,15124521,Pigs,Danish,273,78,29%,ESBL
2015,ESC E. coli,Animal,15124522,Pigs,Danish,273,78,29%,AmpC
2015,ESC E. coli,Animal,15124523,Pigs,Danish,273,78,29%,AmpC
2015,ESC E. coli,Food,15069499,Broiler meat,Import,196,125,64%,Not available
2015,ESC E. coli,Food,15069512,Broiler meat,Import,196,125,64%,Not available
2015,ESC E. coli,Food,15069758,Broiler meat,Import,196,125,64%,Not available
2015,ESC E. coli,Food,15070021,Broiler meat,Danish,238,61,26%,Not available
2015,ESC E. coli,Food,15070206,Broiler meat,Import,196,125,64%,Not available
2015,ESC E. coli,Food,15070497,Broiler meat,Import,196,125,64%,Not available
2015,ESC E. coli,Food,15070728,Broiler meat,Import,196,125,64%,Not available
2015,ESC E. coli,Food,15071214,Broiler meat,Danish,238,61,26%,Not available
2015,ESC E. coli,Food,15071655,Broiler meat,Import,196,125,64%,Not available
2015,ESC E. coli,Food,15072855,Broiler meat,Danish,238,61,26%,Not available
2015,ESC E. coli,Food,15074423,Broiler meat,Import,196,125,64%,Not available
2015,ESC E. coli,Food,15074671,Broiler meat,Import,196,125,64%,Not available
2015,ESC E. coli,Food,15075344,Broiler meat,Import,196,125,64%,Not available
2015,ESC E. coli,Food,15075468,Broiler meat,Import,196,125,64%,Not available
2015,ESC E. coli,Food,15075469,Broiler meat,Import,196,125,64%,Not available
2015,ESC E. coli,Food,15075470,Broiler meat,Import,196,125,64%,Not available
2015,ESC E. coli,Food,15076242,Broiler meat,Danish,238,61,26%,Not available
2015,ESC E. coli,Food,15076357,Broiler meat,Import,196,125,64%,Not available
2015,ESC E. coli,Food,15076426,Broiler meat,Danish,238,61,26%,Not available
2015,ESC E. coli,Food,15076765,Broiler meat,Import,196,125,64%,Not available
2015,ESC E. coli,Food,15078160,Broiler meat,Danish,238,61,26%,Not available
2015,ESC E. coli,Food,15078473,Broiler meat,Import,196,125,64%,Not available
2015,ESC E. coli,Food,15079378,Broiler meat,Import,196,125,64%,Not available
2015,ESC E. coli,Food,15079810,Broiler meat,Import,196,125,64%,Not available
2015,ESC E. coli,Food,15080147,Broiler meat,Import,196,125,64%,Not available
2015,ESC E. coli,Food,15081181,Broiler meat,Danish,238,61,26%,Not available
2015,ESC E. coli,Food,15081183,Broiler meat,Danish,238,61,26%,Not available
2015,ESC E. coli,Food,15082398,Broiler meat,Danish,238,61,26%,Not available
2015,ESC E. coli,Food,15082719,Broiler meat,Import,196,125,64%,Not available
2015,ESC E. coli,Food,15082763,Broiler meat,Danish,238,61,26%,Not available
2015,ESC E. coli,Food,15082840,Broiler meat,Import,196,125,64%,Not available
2015,ESC E. coli,Food,15083543,Broiler meat,Import,196,125,64%,Not available
2015,ESC E. coli,Food,15083563,Broiler meat,Import,196,125,64%,Not available
2015,ESC E. coli,Food,15083725,Broiler meat,Danish,238,61,26%,Not available
2015,ESC E. coli,Food,15083733,Broiler meat,Danish,238,61,26%,Not available
2015,ESC E. coli,Food,15085976,Broiler meat,Import,196,125,64%,Not available
2015,ESC E. coli,Food,15087186,Broiler meat,Import,196,125,64%,Not available
2015,ESC E. coli,Food,15087552,Broiler meat,Danish,238,61,26%,Not available
2015,ESC E. coli,Food,15087675,Broiler meat,Import,196,125,64%,Not available
2015,ESC E. coli,Food,15087678,Broiler meat,Import,196,125,64%,Not available
2015,ESC E. coli,Food,15087993,Broiler meat,Import,196,125,64%,Not available
2015,ESC E. coli,Food,15088075,Broiler meat,Import,196,125,64%,Not available
2015,ESC E. coli,Food,15088190,Broiler meat,Danish,238,61,26%,Not available
2015,ESC E. coli,Food,15089292,Broiler meat,Import,196,125,64%,Not available
2015,ESC E. coli,Food,15089497,Broiler meat,Import,196,125,64%,Not available
2015,ESC E. coli,Food,15089507,Broiler meat,Import,196,125,64%,Not available
2015,ESC E. coli,Food,15089823,Broiler meat,Danish,238,61,26%,Not available
2015,ESC E. coli,Food,15090344,Broiler meat,Import,196,125,64%,Not available
2015,ESC E. coli,Food,15090391,Broiler meat,Import,196,125,64%,Not available
2015,ESC E. coli,Food,15090668,Broiler meat,Import,196,125,64%,Not available
2015,ESC E. coli,Food,15090672,Broiler meat,Import,196,125,64%,Not available
2015,ESC E. coli,Food,15090679,Broiler meat,Danish,238,61,26%,Not available
2015,ESC E. coli,Food,15091884,Broiler meat,Import,196,125,64%,Not available
2015,ESC E. coli,Food,15091889,Broiler meat,Import,196,125,64%,Not available
2015,ESC E. coli,Food,15091892,Broiler meat,Import,196,125,64%,Not available
2015,ESC E. coli,Food,15091920,Broiler meat,Import,196,125,64%,Not available
2015,ESC E. coli,Food,15092008,Broiler meat,Import,196,125,64%,Not available
2015,ESC E. coli,Food,15092489,Broiler meat,Danish,238,61,26%,Not available
2015,ESC E. coli,Food,15092774,Broiler meat,Danish,238,61,26%,Not available
2015,ESC E. coli,Food,15092993,Broiler meat,Import,196,125,64%,Not available
2015,ESC E. coli,Food,15092996,Broiler meat,Import,196,125,64%,Not available
2015,ESC E. coli,Food,15092999,Broiler meat,Import,196,125,64%,Not available
2015,ESC E. coli,Food,15093305,Broiler meat,Import,196,125,64%,Not available
2015,ESC E. coli,Food,15093665,Broiler meat,Import,196,125,64%,Not available
2015,ESC E. coli,Food,15093684,Broiler meat,Import,196,125,64%,Not available
2015,ESC E. coli,Food,15094218,Broiler meat,Danish,238,61,26%,Not available
2015,ESC E. coli,Food,15094225,Broiler meat,Danish,238,61,26%,Not available
2015,ESC E. coli,Food,15094234,Broiler meat,Import,196,125,64%,Not available
2015,ESC E. coli,Food,15094237,Broiler meat,Danish,238,61,26%,Not available
2015,ESC E. coli,Food,15094241,Broiler meat,Danish,238,61,26%,Not available
2015,ESC E. coli,Food,15094242,Broiler meat,Danish,238,61,26%,Not available
2015,ESC E. coli,Food,15094243,Broiler meat,Danish,238,61,26%,Not available
2015,ESC E. coli,Food,15094247,Broiler meat,Danish,238,61,26%,Not available
2015,ESC E. coli,Food,15094899,Broiler meat,Import,196,125,64%,Not available
2015,ESC E. coli,Food,15094905,Broiler meat,Import,196,125,64%,Not available
2015,ESC E. coli,Food,15094934,Broiler meat,Import,196,125,64%,Not available
2015,ESC E. coli,Food,15095208,Broiler meat,Import,196,125,64%,Not available
2015,ESC E. coli,Food,15095209,Broiler meat,Import,196,125,64%,Not available
2015,ESC E. coli,Food,15095245,Broiler meat,Import,196,125,64%,Not available
2015,ESC E. coli,Food,15095645,Broiler meat,Danish,238,61,26%,Not available
2015,ESC E. coli,Food,15095937,Broiler meat,Danish,238,61,26%,Not available
2015,ESC E. coli,Food,15095941,Broiler meat,Danish,238,61,26%,Not available
2015,ESC E. coli,Food,15095944,Broiler meat,Import,196,125,64%,Not available
2015,ESC E. coli,Food,15096222,Broiler meat,Danish,238,61,26%,Not available
2015,ESC E. coli,Food,15096230,Broiler meat,Import,196,125,64%,Not available
2015,ESC E. coli,Food,15096233,Broiler meat,Danish,238,61,26%,Not available
2015,ESC E. coli,Food,15096236,Broiler meat,Danish,238,61,26%,Not available
2015,ESC E. coli,Food,15096239,Broiler meat,Import,196,125,64%,Not available
2015,ESC E. coli,Food,15096395,Broiler meat,Danish,238,61,26%,Not available
2015,ESC E. coli,Food,15096396,Broiler meat,Danish,238,61,26%,Not available
2015,ESC E. coli,Food,15096403,Broiler meat,Danish,238,61,26%,Not available
2015,ESC E. coli,Food,15096406,Broiler meat,Danish,238,61,26%,Not available
2015,ESC E. coli,Food,15096413,Broiler meat,Import,196,125,64%,Not available
2015,ESC E. coli,Food,15096416,Broiler meat,Danish,238,61,26%,Not available
2015,ESC E. coli,Food,15096417,Broiler meat,Danish,238,61,26%,Not available
2015,ESC E. coli,Food,15096418,Broiler meat,Danish,238,61,26%,Not available
2015,ESC E. coli,Food,15096451,Broiler meat,Import,196,125,64%,Not available
2015,ESC E. coli,Food,15096459,Broiler meat,Import,196,125,64%,Not available
2015,ESC E. coli,Food,15096676,Broiler meat,Danish,238,61,26%,Not available
2015,ESC E. coli,Food,15096718,Broiler meat,Import,196,125,64%,Not available
2015,ESC E. coli,Food,15096809,Broiler meat,Import,196,125,64%,Not available
2015,ESC E. coli,Food,15096813,Broiler meat,Import,196,125,64%,Not available
2015,ESC E. coli,Food,15096866,Broiler meat,Import,196,125,64%,Not available
2015,ESC E. coli,Food,15096869,Broiler meat,Import,196,125,64%,Not available
2015,ESC E. coli,Food,15096871,Broiler meat,Danish,238,61,26%,Not available
2015,ESC E. coli,Food,15097117,Broiler meat,Import,196,125,64%,Not available
2015,ESC E. coli,Food,15097121,Broiler meat,Import,196,125,64%,Not available
2015,ESC E. coli,Food,15097420,Broiler meat,Import,196,125,64%,Not available
2015,ESC E. coli,Food,15097430,Broiler meat,Import,196,125,64%,Not available
2015,ESC E. coli,Food,15097439,Broiler meat,Danish,238,61,26%,Not available
2015,ESC E. coli,Food,15097440,Broiler meat,Danish,238,61,26%,Not available
2015,ESC E. coli,Food,15098047,Broiler meat,Import,196,125,64%,Not available
2015,ESC E. coli,Food,15098175,Broiler meat,Import,196,125,64%,Not available
2015,ESC E. coli,Food,15098178,Broiler meat,Import,196,125,64%,Not available
2015,ESC E. coli,Food,15098181,Broiler meat,Import,196,125,64%,Not available
2015,ESC E. coli,Food,15098186,Broiler meat,Import,196,125,64%,Not available
2015,ESC E. coli,Food,15098487,Broiler meat,Import,196,125,64%,Not available
2015,ESC E. coli,Food,15098490,Broiler meat,Import,196,125,64%,Not available
2015,ESC E. coli,Food,15098494,Broiler meat,Import,196,125,64%,Not available
2015,ESC E. coli,Food,15099006,Broiler meat,Danish,238,61,26%,Not available
2015,ESC E. coli,Food,15099138,Broiler meat,Import,196,125,64%,Not available
2015,ESC E. coli,Food,15099140,Broiler meat,Import,196,125,64%,Not available
2015,ESC E. coli,Food,15099278,Broiler meat,Import,196,125,64%,Not available
2015,ESC E. coli,Food,15099331,Broiler meat,Danish,238,61,26%,Not available
2015,ESC E. coli,Food,15099514,Broiler meat,Import,196,125,64%,Not available
2015,ESC E. coli,Food,15099647,Broiler meat,Danish,238,61,26%,Not available
2015,ESC E. coli,Food,15099966,Broiler meat,Import,196,125,64%,Not available
2015,ESC E. coli,Food,15100292,Broiler meat,Danish,238,61,26%,Not available
2015,ESC E. coli,Food,15100804,Broiler meat,Import,196,125,64%,Not available
2015,ESC E. coli,Food,15101202,Broiler meat,Import,196,125,64%,Not available
2015,ESC E. coli,Food,15101301,Broiler meat,Import,196,125,64%,Not available
2015,ESC E. coli,Food,15101313,Broiler meat,Danish,238,61,26%,Not available
2015,ESC E. coli,Food,15101316,Broiler meat,Import,196,125,64%,Not available
2015,ESC E. coli,Food,15101408,Broiler meat,Import,196,125,64%,Not available
2015,ESC E. coli,Food,15101436,Broiler meat,Import,196,125,64%,Not available
2015,ESC E. coli,Food,15101760,Broiler meat,Import,196,125,64%,Not available
2015,ESC E. coli,Food,15103224,Broiler meat,Import,196,125,64%,Not available
2015,ESC E. coli,Food,15103382,Broiler meat,Import,196,125,64%,Not available
2015,ESC E. coli,Food,15103386,Broiler meat,Import,196,125,64%,Not available
2015,ESC E. coli,Food,15104216,Broiler meat,Import,196,125,64%,Not available
2015,ESC E. coli,Food,15104807,Broiler meat,Import,196,125,64%,Not available
2015,ESC E. coli,Food,15105178,Broiler meat,Import,196,125,64%,Not available
2015,ESC E. coli,Food,15105376,Broiler meat,Danish,238,61,26%,Not available
2015,ESC E. coli,Food,15105695,Broiler meat,Import,196,125,64%,Not available
2015,ESC E. coli,Food,15105748,Broiler meat,Import,196,125,64%,Not available
2015,ESC E. coli,Food,15106072,Broiler meat,Import,196,125,64%,Not available
2015,ESC E. coli,Food,15106734,Broiler meat,Import,196,125,64%,Not available
2015,ESC E. coli,Food,15107155,Broiler meat,Danish,238,61,26%,Not available
2015,ESC E. coli,Food,15107157,Broiler meat,Danish,238,61,26%,Not available
2015,ESC E. coli,Food,15108579,Broiler meat,Import,196,125,64%,Not available
2015,ESC E. coli,Food,15108758,Broiler meat,Danish,238,61,26%,Not available
2015,ESC E. coli,Food,15108802,Broiler meat,Import,196,125,64%,Not available
2015,ESC E. coli,Food,15108809,Broiler meat,Import,196,125,64%,Not available
2015,ESC E. coli,Food,15110353,Broiler meat,Danish,238,61,26%,Not available
2015,ESC E. coli,Food,15110928,Broiler meat,Danish,238,61,26%,Not available
2015,ESC E. coli,Food,15111268,Broiler meat,Import,196,125,64%,Not available
2015,ESC E. coli,Food,15111285,Broiler meat,Danish,238,61,26%,Not available
2015,ESC E. coli,Food,15111501,Broiler meat,Import,196,125,64%,Not available
2015,ESC E. coli,Food,15111505,Broiler meat,Import,196,125,64%,Not available
2015,ESC E. coli,Food,15111603,Broiler meat,Import,196,125,64%,Not available
2015,ESC E. coli,Food,15112160,Broiler meat,Import,196,125,64%,Not available
2015,ESC E. coli,Food,15112221,Broiler meat,Danish,238,61,26%,Not available
2015,ESC E. coli,Food,15113605,Broiler meat,Import,196,125,64%,Not available
2015,ESC E. coli,Food,15113606,Broiler meat,Import,196,125,64%,Not available
2015,ESC E. coli,Food,15114444,Broiler meat,Danish,238,61,26%,Not available
2015,ESC E. coli,Food,15114736,Broiler meat,Import,196,125,64%,Not available
2015,ESC E. coli,Food,15115271,Broiler meat,Import,196,125,64%,Not available
2015,ESC E. coli,Food,15115377,Broiler meat,Danish,238,61,26%,Not available
2015,ESC E. coli,Food,15115379,Broiler meat,Danish,238,61,26%,Not available
2015,ESC E. coli,Food,15115722,Broiler meat,Import,196,125,64%,Not available
2015,ESC E. coli,Food,15116019,Broiler meat,Danish,238,61,26%,Not available
2015,ESC E. coli,Food,15116650,Broiler meat,Import,196,125,64%,Not available
2015,ESC E. coli,Food,15117989,Broiler meat,Import,196,125,64%,Not available
2015,ESC E. coli,Food,15118367,Broiler meat,Import,196,125,64%,Not available
2015,ESC E. coli,Food,15119105,Broiler meat,Import,196,125,64%,Not available
2015,ESC E. coli,Food,15120055,Broiler meat,Import,196,125,64%,Not available
2015,ESC E. coli,Food,15120411,Broiler meat,Import,196,125,64%,Not available
2015,ESC E. coli,Food,15120419,Broiler meat,Import,196,125,64%,Not available
2015,ESC E. coli,Food,15120905,Broiler meat,Danish,238,61,26%,Not available
2015,ESC E. coli,Food,15120909,Broiler meat,Import,196,125,64%,Not available
2015,ESC E. coli,Food,15121008,Broiler meat,Danish,238,61,26%,Not available
2015,ESC E. coli,Food,15121118,Broiler meat,Import,196,125,64%,Not available
2015,ESC E. coli,Food,15122368,Broiler meat,Import,196,125,64%,Not available
2015,ESC E. coli,Food,15122737,Broiler meat,Import,196,125,64%,Not available
2015,ESC E. coli,Food,15123593,Broiler meat,Import,196,125,64%,Not available
2015,ESC E. coli,Food,15124311,Broiler meat,Import,196,125,64%,Not available
2016,ESC E. coli,Animal,16002322,Broilers,Danish,298,48,16%,ESBL
2016,ESC E. coli,Animal,16003057,Broilers,Danish,298,48,16%,AmpC
2016,ESC E. coli,Animal,16006411,Broilers,Danish,298,48,16%,ESBL
2016,ESC E. coli,Animal,16006756,Broilers,Danish,298,48,16%,AmpC
2016,ESC E. coli,Animal,16006758,Broilers,Danish,298,48,16%,AmpC
2016,ESC E. coli,Animal,16008218,Broilers,Danish,298,48,16%,AmpC
2016,ESC E. coli,Animal,16008220,Broilers,Danish,298,48,16%,ESBL
2016,ESC E. coli,Animal,16008472,Broilers,Danish,298,48,16%,ESBL
2016,ESC E. coli,Animal,16008474,Broilers,Danish,298,48,16%,ESBL
2016,ESC E. coli,Animal,16010656,Broilers,Danish,298,48,16%,ESBL
2016,ESC E. coli,Animal,16010678,Broilers,Danish,298,48,16%,ESBL
2016,ESC E. coli,Animal,16010684,Broilers,Danish,298,48,16%,AmpC
2016,ESC E. coli,Animal,16012052,Broilers,Danish,298,48,16%,ESBL
2016,ESC E. coli,Animal,16021226,Broilers,Danish,298,48,16%,ESBL
2016,ESC E. coli,Animal,16021227,Broilers,Danish,298,48,16%,AmpC
2016,ESC E. coli,Animal,16025596,Broilers,Danish,298,48,16%,ESBL
2016,ESC E. coli,Animal,16025600,Broilers,Danish,298,48,16%,ESBL
2016,ESC E. coli,Animal,16027655,Broilers,Danish,298,48,16%,AmpC
2016,ESC E. coli,Animal,16027658,Broilers,Danish,298,48,16%,ESBL
2016,ESC E. coli,Animal,16027661,Broilers,Danish,298,48,16%,AmpC
2016,ESC E. coli,Animal,16027662,Broilers,Danish,298,48,16%,AmpC
2016,ESC E. coli,Animal,16029131,Broilers,Danish,298,48,16%,AmpC
2016,ESC E. coli,Animal,16029133,Broilers,Danish,298,48,16%,AmpC
2016,ESC E. coli,Animal,16029684,Broilers,Danish,298,48,16%,ESBL-AmpC
2016,ESC E. coli,Animal,16029686,Broilers,Danish,298,48,16%,ESBL
2016,ESC E. coli,Animal,16029691,Broilers,Danish,298,48,16%,AmpC
2016,ESC E. coli,Animal,16035021,Broilers,Danish,298,48,16%,Other
2016,ESC E. coli,Animal,16036861,Broilers,Danish,298,48,16%,AmpC
2016,ESC E. coli,Animal,16036862,Broilers,Danish,298,48,16%,AmpC
2016,ESC E. coli,Animal,16036882,Broilers,Danish,298,48,16%,AmpC
2016,ESC E. coli,Animal,16036883,Broilers,Danish,298,48,16%,AmpC
2016,ESC E. coli,Animal,16036884,Broilers,Danish,298,48,16%,AmpC
2016,ESC E. coli,Animal,16037235,Broilers,Danish,298,48,16%,ESBL
2016,ESC E. coli,Animal,16040464,Broilers,Danish,298,48,16%,AmpC
2016,ESC E. coli,Animal,16040465,Broilers,Danish,298,48,16%,AmpC
2016,ESC E. coli,Animal,16041453,Broilers,Danish,298,48,16%,ESBL
2016,ESC E. coli,Animal,16041472,Broilers,Danish,298,48,16%,AmpC
2016,ESC E. coli,Animal,16041474,Broilers,Danish,298,48,16%,AmpC
2016,ESC E. coli,Animal,16053324,Broilers,Danish,298,48,16%,AmpC
2016,ESC E. coli,Animal,16053325,Broilers,Danish,298,48,16%,AmpC
2016,ESC E. coli,Animal,16056853,Broilers,Danish,298,48,16%,ESBL
2016,ESC E. coli,Animal,16061041,Broilers,Danish,298,48,16%,AmpC
2016,ESC E. coli,Animal,16061042,Broilers,Danish,298,48,16%,ESBL
2016,ESC E. coli,Animal,16061291,Broilers,Danish,298,48,16%,AmpC
2016,ESC E. coli,Animal,16062095,Broilers,Danish,298,48,16%,AmpC
2016,ESC E. coli,Animal,16062097,Broilers,Danish,298,48,16%,ESBL
2016,ESC E. coli,Animal,16062099,Broilers,Danish,298,48,16%,AmpC
2016,ESC E. coli,Animal,16062144,Broilers,Danish,298,48,16%,AmpC
2016,ESC E. coli,Food,16003091,Broiler meat,Danish,229,52,23%,AmpC
2016,ESC E. coli,Food,16003146,Broiler meat,Danish,229,52,23%,ESBL
2016,ESC E. coli,Food,16004601,Broiler meat,Import,66,37,56%,ESBL
2016,ESC E. coli,Food,16004613,Broiler meat,Danish,229,52,23%,ESBL
2016,ESC E. coli,Food,16004978,Broiler meat,Import,66,37,56%,ESBL
2016,ESC E. coli,Food,16004979,Broiler meat,Import,66,37,56%,ESBL
2016,ESC E. coli,Food,16005224,Broiler meat,Import,66,37,56%,ESBL
2016,ESC E. coli,Food,16009076,Broiler meat,Danish,229,52,23%,AmpC
2016,ESC E. coli,Food,16009215,Broiler meat,Import,66,37,56%,AmpC
2016,ESC E. coli,Food,16009246,Broiler meat,Danish,229,52,23%,ESBL
2016,ESC E. coli,Food,16009280,Broiler meat,Import,66,37,56%,AmpC
2016,ESC E. coli,Food,16009361,Broiler meat,Danish,229,52,23%,AmpC
2016,ESC E. coli,Food,16009362,Broiler meat,Danish,229,52,23%,ESBL
2016,ESC E. coli,Food,16009408,Broiler meat,Import,66,37,56%,ESBL
2016,ESC E. coli,Food,16009415,Broiler meat,Import,66,37,56%,ESBL
2016,ESC E. coli,Food,16009664,Broiler meat,Import,66,37,56%,ESBL
2016,ESC E. coli,Food,16009678,Broiler meat,Import,66,37,56%,ESBL
2016,ESC E. coli,Food,16009908,Broiler meat,Danish,229,52,23%,ESBL
2016,ESC E. coli,Food,16009950,Broiler meat,Import,66,37,56%,ESBL
2016,ESC E. coli,Food,16010294,Broiler meat,Danish,229,52,23%,ESBL
2016,ESC E. coli,Food,16018597,Broiler meat,Danish,229,52,23%,ESBL
2016,ESC E. coli,Food,16018634,Broiler meat,Import,66,37,56%,ESBL
2016,ESC E. coli,Food,16018874,Broiler meat,Import,66,37,56%,ESBL
2016,ESC E. coli,Food,16019035,Broiler meat,Danish,229,52,23%,AmpC
2016,ESC E. coli,Food,16019085,Broiler meat,Import,66,37,56%,ESBL
2016,ESC E. coli,Food,16019702,Broiler meat,Import,66,37,56%,ESBL
2016,ESC E. coli,Food,16019704,Broiler meat,Import,66,37,56%,ESBL
2016,ESC E. coli,Food,16019726,Broiler meat,Danish,229,52,23%,AmpC
2016,ESC E. coli,Food,16019802,Broiler meat,Danish,229,52,23%,ESBL
2016,ESC E. coli,Food,16019805,Broiler meat,Danish,229,52,23%,ESBL
2016,ESC E. coli,Food,16019810,Broiler meat,Danish,229,52,23%,AmpC
2016,ESC E. coli,Food,16020676,Broiler meat,Import,66,37,56%,ESBL
2016,ESC E. coli,Food,16020678,Broiler meat,Import,66,37,56%,ESBL
2016,ESC E. coli,Food,16020939,Broiler meat,Import,66,37,56%,ESBL
2016,ESC E. coli,Food,16027194,Broiler meat,Danish,229,52,23%,ESBL
2016,ESC E. coli,Food,16027204,Broiler meat,Danish,229,52,23%,ESBL
2016,ESC E. coli,Food,16027227,Broiler meat,Danish,229,52,23%,ESBL
2016,ESC E. coli,Food,16027238,Broiler meat,Danish,229,52,23%,ESBL
2016,ESC E. coli,Food,16027247,Broiler meat,Danish,229,52,23%,ESBL
2016,ESC E. coli,Food,16027377,Broiler meat,Import,66,37,56%,ESBL
2016,ESC E. coli,Food,16027457,Broiler meat,Danish,229,52,23%,ESBL
2016,ESC E. coli,Food,16027467,Broiler meat,Danish,229,52,23%,ESBL
2016,ESC E. coli,Food,16028116,Broiler meat,Import,66,37,56%,ESBL
2016,ESC E. coli,Food,16028117,Broiler meat,Import,66,37,56%,AmpC
2016,ESC E. coli,Food,16028159,Broiler meat,Danish,229,52,23%,AmpC
2016,ESC E. coli,Food,16028160,Broiler meat,Import,66,37,56%,AmpC
2016,ESC E. coli,Food,16028944,Broiler meat,Danish,229,52,23%,ESBL
2016,ESC E. coli,Food,16032964,Broiler meat,Danish,229,52,23%,AmpC
2016,ESC E. coli,Food,16033322,Broiler meat,Import,66,37,56%,AmpC
2016,ESC E. coli,Food,16033518,Broiler meat,Danish,229,52,23%,ESBL
2016,ESC E. coli,Food,16033521,Broiler meat,Danish,229,52,23%,AmpC
2016,ESC E. coli,Food,16034011,Broiler meat,Danish,229,52,23%,ESBL
2016,ESC E. coli,Food,16034621,Broiler meat,Danish,229,52,23%,ESBL
2016,ESC E. coli,Food,16034623,Broiler meat,Danish,229,52,23%,ESBL
2016,ESC E. coli,Food,16034626,Broiler meat,Danish,229,52,23%,AmpC
2016,ESC E. coli,Food,16034781,Broiler meat,Danish,229,52,23%,ESBL
2016,ESC E. coli,Food,16034782,Broiler meat,Danish,229,52,23%,ESBL
2016,ESC E. coli,Food,16038972,Broiler meat,Danish,229,52,23%,ESBL
2016,ESC E. coli,Food,16039247,Broiler meat,Danish,229,52,23%,ESBL
2016,ESC E. coli,Food,16039255,Broiler meat,Danish,229,52,23%,ESBL
2016,ESC E. coli,Food,16039256,Broiler meat,Import,66,37,56%,AmpC
2016,ESC E. coli,Food,16039314,Broiler meat,Danish,229,52,23%,ESBL
2016,ESC E. coli,Food,16039410,Broiler meat,Import,66,37,56%,ESBL
2016,ESC E. coli,Food,16039413,Broiler meat,Import,66,37,56%,ESBL-AmpC
2016,ESC E. coli,Food,16039582,Broiler meat,Danish,229,52,23%,ESBL
2016,ESC E. coli,Food,16040938,Broiler meat,Import,66,37,56%,ESBL
2016,ESC E. coli,Food,16041103,Broiler meat,Danish,229,52,23%,ESBL
2016,ESC E. coli,Food,16041182,Broiler meat,Import,66,37,56%,ESBL
2016,ESC E. coli,Food,16041211,Broiler meat,Danish,229,52,23%,AmpC
2016,ESC E. coli,Food,16046789,Broiler meat,Import,66,37,56%,ESBL
2016,ESC E. coli,Food,16046790,Broiler meat,Danish,229,52,23%,ESBL
2016,ESC E. coli,Food,16047574,Broiler meat,Danish,229,52,23%,ESBL
2016,ESC E. coli,Food,16047576,Broiler meat,Import,66,37,56%,ESBL
2016,ESC E. coli,Food,16048387,Broiler meat,Danish,229,52,23%,AmpC
2016,ESC E. coli,Food,16048392,Broiler meat,Import,66,37,56%,AmpC
2016,ESC E. coli,Food,16048589,Broiler meat,Danish,229,52,23%,AmpC
2016,ESC E. coli,Food,16049134,Broiler meat,Danish,229,52,23%,ESBL
2016,ESC E. coli,Food,16049218,Broiler meat,Danish,229,52,23%,ESBL
2016,ESC E. coli,Food,16049438,Broiler meat,Import,66,37,56%,ESBL
2016,ESC E. coli,Food,16049447,Broiler meat,Danish,229,52,23%,AmpC
2016,ESC E. coli,Food,16057220,Broiler meat,Import,66,37,56%,ESBL
2016,ESC E. coli,Food,16057230,Broiler meat,Import,66,37,56%,ESBL
2016,ESC E. coli,Food,16057231,Broiler meat,Import,66,37,56%,AmpC
2016,ESC E. coli,Food,16058421,Broiler meat,Danish,229,52,23%,AmpC
2016,ESC E. coli,Food,16058443,Broiler meat,Import,66,37,56%,AmpC
2016,ESC E. coli,Food,16058507,Broiler meat,Danish,229,52,23%,AmpC
2016,ESC E. coli,Food,16063593,Broiler meat,Danish,229,52,23%,AmpC
2016,ESC E. coli,Food,16063994,Broiler meat,Danish,229,52,23%,AmpC
2016,ESC E. coli,Food,16064004,Broiler meat,Danish,229,52,23%,ESBL
2017,ESC E. coli,Animal,17003968,Cattle,Danish,297,22,7%,ESBL
2017,ESC E. coli,Animal,17022331,Cattle,Danish,297,22,7%,AmpC
2017,ESC E. coli,Animal,17022335,Cattle,Danish,297,22,7%,Other
2017,ESC E. coli,Animal,17023911,Cattle,Danish,297,22,7%,AmpC
2017,ESC E. coli,Animal,17025930,Cattle,Danish,297,22,7%,AmpC
2017,ESC E. coli,Animal,17028050,Cattle,Danish,297,22,7%,AmpC
2017,ESC E. coli,Animal,17003886,Cattle,Danish,297,22,7%,AmpC
2017,ESC E. coli,Animal,17030529,Cattle,Danish,297,22,7%,AmpC
2017,ESC E. coli,Animal,17031299,Cattle,Danish,297,22,7%,ESBL
2017,ESC E. coli,Animal,17032863,Cattle,Danish,297,22,7%,ESBL
2017,ESC E. coli,Animal,17033173,Cattle,Danish,297,22,7%,ESBL
2017,ESC E. coli,Animal,17037049,Cattle,Danish,297,22,7%,ESBL
2017,ESC E. coli,Animal,17038409,Cattle,Danish,297,22,7%,ESBL
2017,ESC E. coli,Animal,17039743,Cattle,Danish,297,22,7%,ESBL
2017,ESC E. coli,Animal,17042221,Cattle,Danish,297,22,7%,AmpC
2017,ESC E. coli,Animal,17007377,Cattle,Danish,297,22,7%,AmpC
2017,ESC E. coli,Animal,17050080,Cattle,Danish,297,22,7%,AmpC
2017,ESC E. coli,Animal,17050032,Cattle,Danish,297,22,7%,ESBL
2017,ESC E. coli,Animal,17050235,Cattle,Danish,297,22,7%,AmpC
2017,ESC E. coli,Animal,17052250,Cattle,Danish,297,22,7%,ESBL
2017,ESC E. coli,Animal,17053586,Cattle,Danish,297,22,7%,ESBL
2017,ESC E. coli,Animal,17053589,Cattle,Danish,297,22,7%,ESBL
2017,ESC E. coli,Animal,17002959,Pigs,Danish,295,73,25%,AmpC
2017,ESC E. coli,Animal,17002958,Pigs,Danish,295,73,25%,AmpC
2017,ESC E. coli,Animal,17002757,Pigs,Danish,295,73,25%,AmpC
2017,ESC E. coli,Animal,17005588,Pigs,Danish,295,73,25%,AmpC
2017,ESC E. coli,Animal,17005715,Pigs,Danish,295,73,25%,ESBL
2017,ESC E. coli,Animal,17007989,Pigs,Danish,295,73,25%,AmpC
2017,ESC E. coli,Animal,17007991,Pigs,Danish,295,73,25%,AmpC
2017,ESC E. coli,Animal,17005813,Pigs,Danish,295,73,25%,AmpC
2017,ESC E. coli,Animal,17005812,Pigs,Danish,295,73,25%,AmpC
2017,ESC E. coli,Animal,17009315,Pigs,Danish,295,73,25%,AmpC
2017,ESC E. coli,Animal,17002934,Pigs,Danish,295,73,25%,AmpC
2017,ESC E. coli,Animal,17009661,Pigs,Danish,295,73,25%,AmpC
2017,ESC E. coli,Animal,17009660,Pigs,Danish,295,73,25%,AmpC
2017,ESC E. coli,Animal,17012378,Pigs,Danish,295,73,25%,AmpC
2017,ESC E. coli,Animal,17004547,Pigs,Danish,295,73,25%,ESBL
2017,ESC E. coli,Animal,17004546,Pigs,Danish,295,73,25%,ESBL
2017,ESC E. coli,Animal,17012383,Pigs,Danish,295,73,25%,AmpC
2017,ESC E. coli,Animal,17019559,Pigs,Danish,295,73,25%,ESBL
2017,ESC E. coli,Animal,17019560,Pigs,Danish,295,73,25%,AmpC
2017,ESC E. coli,Animal,17019562,Pigs,Danish,295,73,25%,ESBL
2017,ESC E. coli,Animal,17021069,Pigs,Danish,295,73,25%,AmpC
2017,ESC E. coli,Animal,17021071,Pigs,Danish,295,73,25%,ESBL
2017,ESC E. coli,Animal,17020729,Pigs,Danish,295,73,25%,AmpC
2017,ESC E. coli,Animal,17019060,Pigs,Danish,295,73,25%,AmpC
2017,ESC E. coli,Animal,17021077,Pigs,Danish,295,73,25%,ESBL
2017,ESC E. coli,Animal,17021076,Pigs,Danish,295,73,25%,AmpC
2017,ESC E. coli,Animal,17025396,Pigs,Danish,295,73,25%,ESBL
2017,ESC E. coli,Animal,17025108,Pigs,Danish,295,73,25%,AmpC
2017,ESC E. coli,Animal,17004555,Pigs,Danish,295,73,25%,AmpC
2017,ESC E. coli,Animal,17025238,Pigs,Danish,295,73,25%,ESBL
2017,ESC E. coli,Animal,17025109,Pigs,Danish,295,73,25%,AmpC
2017,ESC E. coli,Animal,17030201,Pigs,Danish,295,73,25%,AmpC
2017,ESC E. coli,Animal,17030111,Pigs,Danish,295,73,25%,AmpC
2017,ESC E. coli,Animal,17004556,Pigs,Danish,295,73,25%,ESBL
2017,ESC E. coli,Animal,17030567,Pigs,Danish,295,73,25%,AmpC
2017,ESC E. coli,Animal,17004558,Pigs,Danish,295,73,25%,ESBL
2017,ESC E. coli,Animal,17030565,Pigs,Danish,295,73,25%,AmpC
2017,ESC E. coli,Animal,17030571,Pigs,Danish,295,73,25%,AmpC
2017,ESC E. coli,Animal,17030570,Pigs,Danish,295,73,25%,AmpC
2017,ESC E. coli,Animal,17030868,Pigs,Danish,295,73,25%,AmpC
2017,ESC E. coli,Animal,17029222,Pigs,Danish,295,73,25%,AmpC
2017,ESC E. coli,Animal,17029224,Pigs,Danish,295,73,25%,AmpC
2017,ESC E. coli,Animal,17030920,Pigs,Danish,295,73,25%,AmpC
2017,ESC E. coli,Animal,17032065,Pigs,Danish,295,73,25%,AmpC
2017,ESC E. coli,Animal,17004560,Pigs,Danish,295,73,25%,ESBL
2017,ESC E. coli,Animal,17030888,Pigs,Danish,295,73,25%,AmpC
2017,ESC E. coli,Animal,17030604,Pigs,Danish,295,73,25%,AmpC
2017,ESC E. coli,Animal,17037718,Pigs,Danish,295,73,25%,AmpC
2017,ESC E. coli,Animal,17036307,Pigs,Danish,295,73,25%,AmpC
2017,ESC E. coli,Animal,17004562,Pigs,Danish,295,73,25%,ESBL
2017,ESC E. coli,Animal,17037805,Pigs,Danish,295,73,25%,ESBL
2017,ESC E. coli,Animal,17037807,Pigs,Danish,295,73,25%,ESBL
2017,ESC E. coli,Animal,17037806,Pigs,Danish,295,73,25%,AmpC
2017,ESC E. coli,Animal,17037819,Pigs,Danish,295,73,25%,AmpC
2017,ESC E. coli,Animal,17045121,Pigs,Danish,295,73,25%,AmpC
2017,ESC E. coli,Animal,17045226,Pigs,Danish,295,73,25%,ESBL
2017,ESC E. coli,Animal,17045227,Pigs,Danish,295,73,25%,ESBL
2017,ESC E. coli,Animal,17040751,Pigs,Danish,295,73,25%,AmpC
2017,ESC E. coli,Animal,17045229,Pigs,Danish,295,73,25%,AmpC
2017,ESC E. coli,Animal,17051898,Pigs,Danish,295,73,25%,AmpC
2017,ESC E. coli,Animal,17045452,Pigs,Danish,295,73,25%,ESBL
2017,ESC E. coli,Animal,17045456,Pigs,Danish,295,73,25%,AmpC
2017,ESC E. coli,Animal,17056770,Pigs,Danish,295,73,25%,AmpC
2017,ESC E. coli,Animal,17053515,Pigs,Danish,295,73,25%,ESBL
2017,ESC E. coli,Animal,17004576,Pigs,Danish,295,73,25%,AmpC
2017,ESC E. coli,Animal,17057289,Pigs,Danish,295,73,25%,AmpC
2017,ESC E. coli,Animal,17045458,Pigs,Danish,295,73,25%,AmpC
2017,ESC E. coli,Animal,17045460,Pigs,Danish,295,73,25%,AmpC
2017,ESC E. coli,Animal,17004574,Pigs,Danish,295,73,25%,ESBL
2017,ESC E. coli,Animal,17045459,Pigs,Danish,295,73,25%,AmpC
2017,ESC E. coli,Animal,17051573,Pigs,Danish,295,73,25%,AmpC
2017,ESC E. coli,Animal,17053519,Pigs,Danish,295,73,25%,AmpC
2017,ESC E. coli,Animal,17053520,Pigs,Danish,295,73,25%,AmpC
2017,ESC E. coli,Food,17027143,Beef,Danish,170,7,4%,ESBL
2017,ESC E. coli,Food,17045211,Beef,Danish,170,7,4%,ESBL
2017,ESC E. coli,Food,17045228,Beef,Danish,170,7,4%,ESBL
2017,ESC E. coli,Food,17045563,Beef,Danish,170,7,4%,ESBL
2017,ESC E. coli,Food,17045566,Beef,Danish,170,7,4%,ESBL
2017,ESC E. coli,Food,17053268,Beef,Danish,170,7,4%,ESBL
2017,ESC E. coli,Food,17054380,Beef,Danish,170,7,4%,ESBL
2017,ESC E. coli,Food,17001419,Beef,Import,120,3,3%,ESBL
2017,ESC E. coli,Food,17013672,Beef,Import,120,3,3%,ESBL
2017,ESC E. coli,Food,17021344,Beef,Import,120,3,3%,ESBL
2017,ESC E. coli,Food,17054155,Pork,Danish,248,3,1%,ESBL
2017,ESC E. coli,Food,17054378,Pork,Danish,248,3,1%,ESBL
2017,ESC E. coli,Food,17055794,Pork,Danish,248,3,1%,ESBL
2017,ESC E. coli,Food,17005561,Pork,Import,29,4,14%,ESBL
2017,ESC E. coli,Food,17053991,Pork,Import,29,4,14%,ESBL
2017,ESC E. coli,Food,17057257,Pork,Import,29,4,14%,ESBL
2017,ESC E. coli,Food,17057259,Pork,Import,29,4,14%,AmpC
2018,ESC E. coli,Animal,18001670,Broilers,Danish,837,124,15%,ESBL
2018,ESC E. coli,Animal,18004170,Broilers,Danish,837,124,15%,AmpC
2018,ESC E. coli,Animal,18004172,Broilers,Danish,837,124,15%,AmpC
2018,ESC E. coli,Animal,18007131,Broilers,Danish,837,124,15%,AmpC
2018,ESC E. coli,Animal,18007136,Broilers,Danish,837,124,15%,ESBL
2018,ESC E. coli,Animal,18009078,Broilers,Danish,837,124,15%,AmpC
2018,ESC E. coli,Animal,18009079,Broilers,Danish,837,124,15%,AmpC
2018,ESC E. coli,Animal,18011071,Broilers,Danish,837,124,15%,AmpC
2018,ESC E. coli,Animal,18016942,Broilers,Danish,837,124,15%,AmpC
2018,ESC E. coli,Animal,18021675,Broilers,Danish,837,124,15%,ESBL
2018,ESC E. coli,Animal,18021676,Broilers,Danish,837,124,15%,AmpC
2018,ESC E. coli,Animal,18022963,Broilers,Danish,837,124,15%,AmpC
2018,ESC E. coli,Animal,18022967,Broilers,Danish,837,124,15%,AmpC
2018,ESC E. coli,Animal,18022969,Broilers,Danish,837,124,15%,AmpC
2018,ESC E. coli,Animal,18022970,Broilers,Danish,837,124,15%,AmpC
2018,ESC E. coli,Animal,18022971,Broilers,Danish,837,124,15%,AmpC
2018,ESC E. coli,Animal,18022983,Broilers,Danish,837,124,15%,AmpC
2018,ESC E. coli,Animal,18022984,Broilers,Danish,837,124,15%,AmpC
2018,ESC E. coli,Animal,18022987,Broilers,Danish,837,124,15%,AmpC
2018,ESC E. coli,Animal,18022988,Broilers,Danish,837,124,15%,AmpC
2018,ESC E. coli,Animal,18022989,Broilers,Danish,837,124,15%,AmpC
2018,ESC E. coli,Animal,18023021,Broilers,Danish,837,124,15%,AmpC
2018,ESC E. coli,Animal,18025022,Broilers,Danish,837,124,15%,AmpC
2018,ESC E. coli,Animal,18025924,Broilers,Danish,837,124,15%,AmpC
2018,ESC E. coli,Animal,18025975,Broilers,Danish,837,124,15%,AmpC
2018,ESC E. coli,Animal,18025977,Broilers,Danish,837,124,15%,AmpC
2018,ESC E. coli,Animal,18025978,Broilers,Danish,837,124,15%,AmpC
2018,ESC E. coli,Animal,18025979,Broilers,Danish,837,124,15%,AmpC
2018,ESC E. coli,Animal,18026583,Broilers,Danish,837,124,15%,AmpC
2018,ESC E. coli,Animal,18026595,Broilers,Danish,837,124,15%,AmpC
2018,ESC E. coli,Animal,18026601,Broilers,Danish,837,124,15%,Other
2018,ESC E. coli,Animal,18026603,Broilers,Danish,837,124,15%,AmpC
2018,ESC E. coli,Animal,18026613,Broilers,Danish,837,124,15%,Other
2018,ESC E. coli,Animal,18026633,Broilers,Danish,837,124,15%,AmpC
2018,ESC E. coli,Animal,18026636,Broilers,Danish,837,124,15%,AmpC
2018,ESC E. coli,Animal,18026640,Broilers,Danish,837,124,15%,AmpC
2018,ESC E. coli,Animal,18027707,Broilers,Danish,837,124,15%,AmpC
2018,ESC E. coli,Animal,18027709,Broilers,Danish,837,124,15%,ESBL
2018,ESC E. coli,Animal,18028409,Broilers,Danish,837,124,15%,AmpC
2018,ESC E. coli,Animal,18028411,Broilers,Danish,837,124,15%,ESBL-AmpC
2018,ESC E. coli,Animal,18028413,Broilers,Danish,837,124,15%,ESBL
2018,ESC E. coli,Animal,18028414,Broilers,Danish,837,124,15%,AmpC
2018,ESC E. coli,Animal,18028450,Broilers,Danish,837,124,15%,AmpC
2018,ESC E. coli,Animal,18028459,Broilers,Danish,837,124,15%,AmpC
2018,ESC E. coli,Animal,18028956,Broilers,Danish,837,124,15%,AmpC
2018,ESC E. coli,Animal,18028961,Broilers,Danish,837,124,15%,AmpC
2018,ESC E. coli,Animal,18030818,Broilers,Danish,837,124,15%,AmpC
2018,ESC E. coli,Animal,18030821,Broilers,Danish,837,124,15%,AmpC
2018,ESC E. coli,Animal,18030823,Broilers,Danish,837,124,15%,AmpC
2018,ESC E. coli,Animal,18030826,Broilers,Danish,837,124,15%,AmpC
2018,ESC E. coli,Animal,18030843,Broilers,Danish,837,124,15%,AmpC
2018,ESC E. coli,Animal,18030849,Broilers,Danish,837,124,15%,AmpC
2018,ESC E. coli,Animal,18030851,Broilers,Danish,837,124,15%,AmpC
2018,ESC E. coli,Animal,18030859,Broilers,Danish,837,124,15%,AmpC
2018,ESC E. coli,Animal,18030862,Broilers,Danish,837,124,15%,AmpC
2018,ESC E. coli,Animal,18030864,Broilers,Danish,837,124,15%,AmpC
2018,ESC E. coli,Animal,18030891,Broilers,Danish,837,124,15%,AmpC
2018,ESC E. coli,Animal,18030920,Broilers,Danish,837,124,15%,AmpC
2018,ESC E. coli,Animal,18030921,Broilers,Danish,837,124,15%,AmpC
2018,ESC E. coli,Animal,18030922,Broilers,Danish,837,124,15%,AmpC
2018,ESC E. coli,Animal,18030927,Broilers,Danish,837,124,15%,AmpC
2018,ESC E. coli,Animal,18030928,Broilers,Danish,837,124,15%,AmpC
2018,ESC E. coli,Animal,18030944,Broilers,Danish,837,124,15%,AmpC
2018,ESC E. coli,Animal,18030946,Broilers,Danish,837,124,15%,AmpC
2018,ESC E. coli,Animal,18030949,Broilers,Danish,837,124,15%,AmpC
2018,ESC E. coli,Animal,18030960,Broilers,Danish,837,124,15%,AmpC
2018,ESC E. coli,Animal,18030963,Broilers,Danish,837,124,15%,AmpC
2018,ESC E. coli,Animal,18030971,Broilers,Danish,837,124,15%,ESBL
2018,ESC E. coli,Animal,18032235,Broilers,Danish,837,124,15%,AmpC
2018,ESC E. coli,Animal,18032240,Broilers,Danish,837,124,15%,AmpC
2018,ESC E. coli,Animal,18032243,Broilers,Danish,837,124,15%,AmpC
2018,ESC E. coli,Animal,18033127,Broilers,Danish,837,124,15%,AmpC
2018,ESC E. coli,Animal,18033128,Broilers,Danish,837,124,15%,AmpC
2018,ESC E. coli,Animal,18033129,Broilers,Danish,837,124,15%,AmpC
2018,ESC E. coli,Animal,18033137,Broilers,Danish,837,124,15%,AmpC
2018,ESC E. coli,Animal,18034713,Broilers,Danish,837,124,15%,AmpC
2018,ESC E. coli,Animal,18034716,Broilers,Danish,837,124,15%,AmpC
2018,ESC E. coli,Animal,18034719,Broilers,Danish,837,124,15%,AmpC
2018,ESC E. coli,Animal,18034720,Broilers,Danish,837,124,15%,ESBL
2018,ESC E. coli,Animal,18034724,Broilers,Danish,837,124,15%,AmpC
2018,ESC E. coli,Animal,18035345,Broilers,Danish,837,124,15%,AmpC
2018,ESC E. coli,Animal,18035352,Broilers,Danish,837,124,15%,AmpC
2018,ESC E. coli,Animal,18035763,Broilers,Danish,837,124,15%,AmpC
2018,ESC E. coli,Animal,18036502,Broilers,Danish,837,124,15%,ESBL
2018,ESC E. coli,Animal,18036507,Broilers,Danish,837,124,15%,AmpC
2018,ESC E. coli,Animal,18036814,Broilers,Danish,837,124,15%,AmpC
2018,ESC E. coli,Animal,18036815,Broilers,Danish,837,124,15%,ESBL
2018,ESC E. coli,Animal,18036818,Broilers,Danish,837,124,15%,ESBL
2018,ESC E. coli,Animal,18037025,Broilers,Danish,837,124,15%,ESBL
2018,ESC E. coli,Animal,18037192,Broilers,Danish,837,124,15%,AmpC
2018,ESC E. coli,Animal,18037195,Broilers,Danish,837,124,15%,AmpC
2018,ESC E. coli,Animal,18040525,Broilers,Danish,837,124,15%,AmpC
2018,ESC E. coli,Animal,18040531,Broilers,Danish,837,124,15%,AmpC
2018,ESC E. coli,Animal,18040533,Broilers,Danish,837,124,15%,ESBL
2018,ESC E. coli,Animal,18040535,Broilers,Danish,837,124,15%,ESBL
2018,ESC E. coli,Animal,18040565,Broilers,Danish,837,124,15%,AmpC
2018,ESC E. coli,Animal,18040568,Broilers,Danish,837,124,15%,AmpC
2018,ESC E. coli,Animal,18040570,Broilers,Danish,837,124,15%,ESBL
2018,ESC E. coli,Animal,18040612,Broilers,Danish,837,124,15%,AmpC
2018,ESC E. coli,Animal,18040616,Broilers,Danish,837,124,15%,AmpC
2018,ESC E. coli,Animal,18040646,Broilers,Danish,837,124,15%,AmpC
2018,ESC E. coli,Animal,18042050,Broilers,Danish,837,124,15%,ESBL
2018,ESC E. coli,Animal,18042053,Broilers,Danish,837,124,15%,AmpC
2018,ESC E. coli,Animal,18042056,Broilers,Danish,837,124,15%,AmpC
2018,ESC E. coli,Animal,18042057,Broilers,Danish,837,124,15%,ESBL
2018,ESC E. coli,Animal,18043986,Broilers,Danish,837,124,15%,AmpC
2018,ESC E. coli,Animal,18044027,Broilers,Danish,837,124,15%,AmpC
2018,ESC E. coli,Animal,18044037,Broilers,Danish,837,124,15%,AmpC
2018,ESC E. coli,Animal,18044057,Broilers,Danish,837,124,15%,AmpC
2018,ESC E. coli,Animal,18044082,Broilers,Danish,837,124,15%,AmpC
2018,ESC E. coli,Animal,18044085,Broilers,Danish,837,124,15%,AmpC
2018,ESC E. coli,Animal,18044091,Broilers,Danish,837,124,15%,AmpC
2018,ESC E. coli,Animal,18044098,Broilers,Danish,837,124,15%,AmpC
2018,ESC E. coli,Animal,18044113,Broilers,Danish,837,124,15%,AmpC
2018,ESC E. coli,Animal,18045468,Broilers,Danish,837,124,15%,AmpC
2018,ESC E. coli,Animal,18046459,Broilers,Danish,837,124,15%,AmpC
2018,ESC E. coli,Animal,18046462,Broilers,Danish,837,124,15%,AmpC
2018,ESC E. coli,Animal,18047509,Broilers,Danish,837,124,15%,AmpC
2018,ESC E. coli,Animal,18053056,Broilers,Danish,837,124,15%,AmpC
2018,ESC E. coli,Animal,18053059,Broilers,Danish,837,124,15%,ESBL
2018,ESC E. coli,Animal,18053060,Broilers,Danish,837,124,15%,AmpC
2018,ESC E. coli,Animal,18054344,Broilers,Danish,837,124,15%,AmpC
2018,ESC E. coli,Animal,18054346,Broilers,Danish,837,124,15%,ESBL
2018,ESC E. coli,Animal,18056739,Broilers,Danish,837,124,15%,AmpC
2018,ESC E. coli,Food,18000706,Broiler meat,Danish,244,36,15%,AmpC
2018,ESC E. coli,Food,18000710,Broiler meat,Import,180,82,46%,AmpC
2018,ESC E. coli,Food,18001554,Broiler meat,Danish,244,36,15%,AmpC
2018,ESC E. coli,Food,18001555,Broiler meat,Danish,244,36,15%,AmpC
2018,ESC E. coli,Food,18002383,Broiler meat,Import,180,82,46%,AmpC
2018,ESC E. coli,Food,18008063,Broiler meat,Danish,244,36,15%,AmpC
2018,ESC E. coli,Food,18008142,Broiler meat,Danish,244,36,15%,AmpC
2018,ESC E. coli,Food,18008145,Broiler meat,Import,180,82,46%,AmpC
2018,ESC E. coli,Food,18008756,Broiler meat,Import,180,82,46%,ESBL
2018,ESC E. coli,Food,18008757,Broiler meat,Danish,244,36,15%,AmpC
2018,ESC E. coli,Food,18008758,Broiler meat,Danish,244,36,15%,ESBL
2018,ESC E. coli,Food,18010610,Broiler meat,Danish,244,36,15%,AmpC
2018,ESC E. coli,Food,18010631,Broiler meat,Danish,244,36,15%,AmpC
2018,ESC E. coli,Food,18012003,Broiler meat,Danish,244,36,15%,ESBL
2018,ESC E. coli,Food,18015283,Broiler meat,Import,180,82,46%,AmpC
2018,ESC E. coli,Food,18015284,Broiler meat,Danish,244,36,15%,ESBL
2018,ESC E. coli,Food,18015651,Broiler meat,Danish,244,36,15%,AmpC
2018,ESC E. coli,Food,18015657,Broiler meat,Danish,244,36,15%,AmpC
2018,ESC E. coli,Food,18019336,Broiler meat,Danish,244,36,15%,AmpC
2018,ESC E. coli,Food,18019344,Broiler meat,Danish,244,36,15%,ESBL
2018,ESC E. coli,Food,18019345,Broiler meat,Danish,244,36,15%,ESBL
2018,ESC E. coli,Food,18019346,Broiler meat,Danish,244,36,15%,ESBL
2018,ESC E. coli,Food,18019377,Broiler meat,Import,180,82,46%,ESBL-AmpC
2018,ESC E. coli,Food,18019378,Broiler meat,Import,180,82,46%,ESBL
2018,ESC E. coli,Food,18027352,Broiler meat,Danish,244,36,15%,AmpC
2018,ESC E. coli,Food,18027354,Broiler meat,Import,180,82,46%,ESBL
2018,ESC E. coli,Food,18027688,Broiler meat,Danish,244,36,15%,AmpC
2018,ESC E. coli,Food,18028231,Broiler meat,Danish,244,36,15%,AmpC
2018,ESC E. coli,Food,18028726,Broiler meat,Danish,244,36,15%,AmpC
2018,ESC E. coli,Food,18031398,Broiler meat,Danish,244,36,15%,AmpC
2018,ESC E. coli,Food,18032461,Broiler meat,Danish,244,36,15%,AmpC
2018,ESC E. coli,Food,18032476,Broiler meat,Danish,244,36,15%,AmpC
2018,ESC E. coli,Food,18032740,Broiler meat,Import,180,82,46%,ESBL
2018,ESC E. coli,Food,18033812,Broiler meat,Danish,244,36,15%,AmpC
2018,ESC E. coli,Food,18034118,Broiler meat,Import,180,82,46%,ESBL
2018,ESC E. coli,Food,18034121,Broiler meat,Danish,244,36,15%,AmpC
2018,ESC E. coli,Food,18034159,Broiler meat,Danish,244,36,15%,AmpC
2018,ESC E. coli,Food,18034162,Broiler meat,Import,180,82,46%,ESBL
2018,ESC E. coli,Food,18037160,Broiler meat,Import,180,82,46%,ESBL
2018,ESC E. coli,Food,18037161,Broiler meat,Danish,244,36,15%,AmpC
2018,ESC E. coli,Food,18037517,Broiler meat,Import,180,82,46%,ESBL
2018,ESC E. coli,Food,18037518,Broiler meat,Import,180,82,46%,ESBL
2018,ESC E. coli,Food,18041056,Broiler meat,Import,180,82,46%,ESBL
2018,ESC E. coli,Food,18041449,Broiler meat,Danish,244,36,15%,AmpC
2018,ESC E. coli,Food,18043937,Broiler meat,Import,180,82,46%,ESBL
2018,ESC E. coli,Food,18043938,Broiler meat,Import,180,82,46%,AmpC
2018,ESC E. coli,Food,18048138,Broiler meat,Danish,244,36,15%,ESBL-AmpC
2018,ESC E. coli,Food,18049048,Broiler meat,Danish,244,36,15%,AmpC
2018,ESC E. coli,Food,18049049,Broiler meat,Danish,244,36,15%,ESBL
2018,ESC E. coli,Food,18054788,Broiler meat,Danish,244,36,15%,AmpC
2018,ESC E. coli,Food,18056215,Broiler meat,Import,180,82,46%,ESBL
2018,ESC E. coli,Food,18056646,Broiler meat,Danish,244,36,15%,ESBL
2018,ESC E. coli,Food,18057552,Broiler meat,Danish,244,36,15%,ESBL
2018,ESC E. coli,Food,18058909,Broiler meat,Danish,244,36,15%,ESBL
2018,ESC E. coli,Food,18001880,Broiler meat,Import,180,82,46%,ESBL
2018,ESC E. coli,Food,18001947,Broiler meat,Import,180,82,46%,ESBL
2018,ESC E. coli,Food,18001955,Broiler meat,Import,180,82,46%,ESBL
2018,ESC E. coli,Food,18004332,Broiler meat,Import,180,82,46%,ESBL
2018,ESC E. coli,Food,18005185,Broiler meat,Import,180,82,46%,ESBL
2018,ESC E. coli,Food,18005187,Broiler meat,Import,180,82,46%,ESBL
2018,ESC E. coli,Food,18005806,Broiler meat,Import,180,82,46%,ESBL
2018,ESC E. coli,Food,18006592,Broiler meat,Import,180,82,46%,ESBL
2018,ESC E. coli,Food,18006891,Broiler meat,Import,180,82,46%,AmpC
2018,ESC E. coli,Food,18009377,Broiler meat,Import,180,82,46%,ESBL
2018,ESC E. coli,Food,18009386,Broiler meat,Import,180,82,46%,AmpC
2018,ESC E. coli,Food,18010476,Broiler meat,Import,180,82,46%,ESBL
2018,ESC E. coli,Food,18011112,Broiler meat,Import,180,82,46%,ESBL
2018,ESC E. coli,Food,18011161,Broiler meat,Import,180,82,46%,ESBL
2018,ESC E. coli,Food,18011598,Broiler meat,Import,180,82,46%,ESBL
2018,ESC E. coli,Food,18011601,Broiler meat,Import,180,82,46%,ESBL
2018,ESC E. coli,Food,18011603,Broiler meat,Import,180,82,46%,ESBL
2018,ESC E. coli,Food,18017247,Broiler meat,Import,180,82,46%,ESBL
2018,ESC E. coli,Food,18018218,Broiler meat,Import,180,82,46%,ESBL
2018,ESC E. coli,Food,18018660,Broiler meat,Import,180,82,46%,ESBL
2018,ESC E. coli,Food,18018934,Broiler meat,Import,180,82,46%,ESBL
2018,ESC E. coli,Food,18019804,Broiler meat,Import,180,82,46%,ESBL
2018,ESC E. coli,Food,18022278,Broiler meat,Import,180,82,46%,ESBL-AmpC
2018,ESC E. coli,Food,18023080,Broiler meat,Import,180,82,46%,ESBL
2018,ESC E. coli,Food,18023350,Broiler meat,Import,180,82,46%,ESBL
2018,ESC E. coli,Food,18023377,Broiler meat,Import,180,82,46%,ESBL
2018,ESC E. coli,Food,18024640,Broiler meat,Import,180,82,46%,ESBL
2018,ESC E. coli,Food,18024932,Broiler meat,Import,180,82,46%,ESBL
2018,ESC E. coli,Food,18026947,Broiler meat,Import,180,82,46%,ESBL
2018,ESC E. coli,Food,18026975,Broiler meat,Import,180,82,46%,ESBL
2018,ESC E. coli,Food,18027764,Broiler meat,Import,180,82,46%,ESBL
2018,ESC E. coli,Food,18027766,Broiler meat,Import,180,82,46%,ESBL
2018,ESC E. coli,Food,18028246,Broiler meat,Import,180,82,46%,ESBL
2018,ESC E. coli,Food,18028752,Broiler meat,Import,180,82,46%,ESBL
2018,ESC E. coli,Food,18030605,Broiler meat,Import,180,82,46%,ESBL
2018,ESC E. coli,Food,18031075,Broiler meat,Import,180,82,46%,ESBL
2018,ESC E. coli,Food,18033000,Broiler meat,Import,180,82,46%,ESBL
2018,ESC E. coli,Food,18033004,Broiler meat,Import,180,82,46%,ESBL
2018,ESC E. coli,Food,18033012,Broiler meat,Import,180,82,46%,ESBL
2018,ESC E. coli,Food,18034542,Broiler meat,Import,180,82,46%,ESBL
2018,ESC E. coli,Food,18037348,Broiler meat,Import,180,82,46%,ESBL
2018,ESC E. coli,Food,18038135,Broiler meat,Import,180,82,46%,ESBL
2018,ESC E. coli,Food,18038160,Broiler meat,Import,180,82,46%,ESBL
2018,ESC E. coli,Food,18038541,Broiler meat,Import,180,82,46%,ESBL
2018,ESC E. coli,Food,18038543,Broiler meat,Import,180,82,46%,ESBL
2018,ESC E. coli,Food,18038545,Broiler meat,Import,180,82,46%,AmpC
2018,ESC E. coli,Food,18039856,Broiler meat,Import,180,82,46%,ESBL
2018,ESC E. coli,Food,18040000,Broiler meat,Import,180,82,46%,ESBL
2018,ESC E. coli,Food,18040002,Broiler meat,Import,180,82,46%,ESBL
2018,ESC E. coli,Food,18041448,Broiler meat,Import,180,82,46%,ESBL
2018,ESC E. coli,Food,18041487,Broiler meat,Import,180,82,46%,AmpC
2018,ESC E. coli,Food,18044433,Broiler meat,Import,180,82,46%,AmpC
2018,ESC E. coli,Food,18044435,Broiler meat,Import,180,82,46%,ESBL
2018,ESC E. coli,Food,18045480,Broiler meat,Import,180,82,46%,AmpC
2018,ESC E. coli,Food,18045486,Broiler meat,Import,180,82,46%,ESBL
2018,ESC E. coli,Food,18046238,Broiler meat,Import,180,82,46%,ESBL
2018,ESC E. coli,Food,18046469,Broiler meat,Import,180,82,46%,ESBL
2018,ESC E. coli,Food,18046471,Broiler meat,Import,180,82,46%,AmpC
2018,ESC E. coli,Food,18046473,Broiler meat,Import,180,82,46%,ESBL
2018,ESC E. coli,Food,18047810,Broiler meat,Import,180,82,46%,AmpC
2018,ESC E. coli,Food,18050186,Broiler meat,Import,180,82,46%,ESBL
2018,ESC E. coli,Food,18050375,Broiler meat,Import,180,82,46%,ESBL
2018,ESC E. coli,Food,18052302,Broiler meat,Import,180,82,46%,ESBL
2018,ESC E. coli,Food,18053144,Broiler meat,Import,180,82,46%,AmpC
2019,ESC E. coli,Food,19003746,Pork,Import,36,15,42%,ESBL
2019,ESC E. coli,Food,19003749,Beef,Import,195,9,5%,ESBL
2019,ESC E. coli,Food,19005052,Pork,Danish,317,9,3%,AmpC
2019,ESC E. coli,Food,19005053,Pork,Danish,317,9,3%,AmpC
2019,ESC E. coli,Food,19005922,Pork,Import,36,15,42%,AmpC
2019,ESC E. coli,Animal,19007184,Cattle,Danish,306,25,8%,ESBL
2019,ESC E. coli,Animal,19007188,Cattle,Danish,306,25,8%,AmpC
2019,ESC E. coli,Animal,19007197,Cattle,Danish,306,25,8%,AmpC
2019,ESC E. coli,Animal,19007203,Cattle,Danish,306,25,8%,ESBL
2019,ESC E. coli,Animal,19007213,Cattle,Danish,306,25,8%,ESBL
2019,ESC E. coli,Animal,19007602,Cattle,Danish,306,25,8%,ESBL
2019,ESC E. coli,Animal,19008015,Pigs,Danish,330,89,27%,AmpC
2019,ESC E. coli,Animal,19008229,Pigs,Danish,330,89,27%,ESBL
2019,ESC E. coli,Animal,19008233,Pigs,Danish,330,89,27%,ESBL
2019,ESC E. coli,Animal,19008234,Pigs,Danish,330,89,27%,AmpC
2019,ESC E. coli,Animal,19008237,Pigs,Danish,330,89,27%,AmpC
2019,ESC E. coli,Animal,19008238,Pigs,Danish,330,89,27%,ESBL
2019,ESC E. coli,Animal,19008239,Pigs,Danish,330,89,27%,AmpC
2019,ESC E. coli,Animal,19008242,Pigs,Danish,330,89,27%,AmpC
2019,ESC E. coli,Animal,19008245,Pigs,Danish,330,89,27%,AmpC
2019,ESC E. coli,Animal,19008247,Pigs,Danish,330,89,27%,ESBL
2019,ESC E. coli,Animal,19008248,Pigs,Danish,330,89,27%,AmpC
2019,ESC E. coli,Animal,19008249,Pigs,Danish,330,89,27%,ESBL
2019,ESC E. coli,Animal,19008250,Pigs,Danish,330,89,27%,ESBL
2019,ESC E. coli,Animal,19008252,Pigs,Danish,330,89,27%,ESBL
2019,ESC E. coli,Animal,19008254,Pigs,Danish,330,89,27%,Other
2019,ESC E. coli,Animal,19008255,Pigs,Danish,330,89,27%,AmpC
2019,ESC E. coli,Animal,19008963,Pigs,Danish,330,89,27%,AmpC
2019,ESC E. coli,Animal,19010686,Pigs,Danish,330,89,27%,ESBL
2019,ESC E. coli,Animal,19010687,Pigs,Danish,330,89,27%,AmpC
2019,ESC E. coli,Animal,19011089,Pigs,Danish,330,89,27%,AmpC
2019,ESC E. coli,Animal,19011091,Pigs,Danish,330,89,27%,AmpC
2019,ESC E. coli,Food,19011092,Broiler meat,Danish,257,14,5%,ESBL
2019,ESC E. coli,Food,19011093,Broiler meat,Danish,257,14,5%,ESBL
2019,ESC E. coli,Animal,19011151,Cattle,Danish,306,25,8%,ESBL
2019,ESC E. coli,Food,19011713,Pork,Import,36,15,42%,ESBL
2019,ESC E. coli,Food,19012643,Pork,Import,36,15,42%,AmpC
2019,ESC E. coli,Food,19012798,Broiler meat,Import,44,15,34%,ESBL
2019,ESC E. coli,Food,19013052,Broiler meat,Import,44,15,34%,AmpC
2019,ESC E. coli,Animal,19013520,Pigs,Danish,330,89,27%,AmpC
2019,ESC E. coli,Animal,19013813,Pigs,Danish,330,89,27%,AmpC
2019,ESC E. coli,Animal,19013857,Pigs,Danish,330,89,27%,ESBL
2019,ESC E. coli,Animal,19013864,Pigs,Danish,330,89,27%,AmpC
2019,ESC E. coli,Animal,19013877,Pigs,Danish,330,89,27%,AmpC
2019,ESC E. coli,Animal,19013889,Pigs,Danish,330,89,27%,AmpC
2019,ESC E. coli,Food,19014046,Broiler meat,Import,44,15,34%,AmpC
2019,ESC E. coli,Animal,19014872,Pigs,Danish,330,89,27%,AmpC
2019,ESC E. coli,Food,19015853,Pork,Import,36,15,42%,AmpC
2019,ESC E. coli,Food,19016264,Broiler meat,Import,44,15,34%,ESBL
2019,ESC E. coli,Food,19016310,Pork,Import,36,15,42%,AmpC
2019,ESC E. coli,Food,19016419,Broiler meat,Danish,257,14,5%,AmpC
2019,ESC E. coli,Food,19016420,Broiler meat,Danish,257,14,5%,AmpC
2019,ESC E. coli,Food,19016428,Broiler meat,Danish,257,14,5%,AmpC
2019,ESC E. coli,Food,19016430,Broiler meat,Danish,257,14,5%,ESBL
2019,ESC E. coli,Animal,19016894,Pigs,Danish,330,89,27%,ESBL
2019,ESC E. coli,Animal,19016896,Pigs,Danish,330,89,27%,ESBL
2019,ESC E. coli,Food,19017043,Broiler meat,Import,44,15,34%,ESBL
2019,ESC E. coli,Animal,19017229,Pigs,Danish,330,89,27%,AmpC
2019,ESC E. coli,Food,19017612,Pork,Import,36,15,42%,ESBL
2019,ESC E. coli,Food,19017619,Pork,Import,36,15,42%,AmpC
2019,ESC E. coli,Food,19017857,Pork,Import,36,15,42%,ESBL
2019,ESC E. coli,Animal,19019271,Pigs,Danish,330,89,27%,AmpC
2019,ESC E. coli,Animal,19019272,Pigs,Danish,330,89,27%,ESBL
2019,ESC E. coli,Animal,19019277,Pigs,Danish,330,89,27%,AmpC
2019,ESC E. coli,Animal,19019297,Pigs,Danish,330,89,27%,AmpC
2019,ESC E. coli,Animal,19020759,Cattle,Danish,306,25,8%,AmpC
2019,ESC E. coli,Food,19023334,Broiler meat,Danish,257,14,5%,AmpC
2019,ESC E. coli,Animal,19023800,Pigs,Danish,330,89,27%,ESBL
2019,ESC E. coli,Animal,19023801,Pigs,Danish,330,89,27%,ESBL
2019,ESC E. coli,Animal,19023802,Pigs,Danish,330,89,27%,AmpC
2019,ESC E. coli,Animal,19023803,Pigs,Danish,330,89,27%,AmpC
2019,ESC E. coli,Animal,19023805,Pigs,Danish,330,89,27%,AmpC
2019,ESC E. coli,Food,19024625,Pork,Import,36,15,42%,ESBL
2019,ESC E. coli,Animal,19025630,Pigs,Danish,330,89,27%,AmpC
2019,ESC E. coli,Animal,19025631,Pigs,Danish,330,89,27%,AmpC
2019,ESC E. coli,Animal,19025632,Pigs,Danish,330,89,27%,AmpC
2019,ESC E. coli,Animal,19025671,Cattle,Danish,306,25,8%,AmpC
2019,ESC E. coli,Animal,19025768,Pigs,Danish,330,89,27%,AmpC
2019,ESC E. coli,Food,19025829,Broiler meat,Import,44,15,34%,ESBL
2019,ESC E. coli,Animal,19026851,Pigs,Danish,330,89,27%,AmpC
2019,ESC E. coli,Animal,19027480,Pigs,Danish,330,89,27%,AmpC
2019,ESC E. coli,Food,19027811,Beef,Import,195,9,5%,ESBL
2019,ESC E. coli,Animal,19027879,Pigs,Danish,330,89,27%,Other
2019,ESC E. coli,Animal,19027880,Pigs,Danish,330,89,27%,AmpC
2019,ESC E. coli,Animal,19027890,Pigs,Danish,330,89,27%,AmpC
2019,ESC E. coli,Animal,19028108,Pigs,Danish,330,89,27%,AmpC
2019,ESC E. coli,Animal,19028110,Pigs,Danish,330,89,27%,ESBL
2019,ESC E. coli,Animal,19028191,Cattle,Danish,306,25,8%,ESBL
2019,ESC E. coli,Animal,19028195,Cattle,Danish,306,25,8%,AmpC
2019,ESC E. coli,Food,19028412,Broiler meat,Import,44,15,34%,AmpC
2019,ESC E. coli,Food,19029247,Beef,Import,195,9,5%,ESBL
2019,ESC E. coli,Animal,19029700,Cattle,Danish,306,25,8%,AmpC
2019,ESC E. coli,Food,19029708,Broiler meat,Danish,257,14,5%,ESBL
2019,ESC E. coli,Food,19029709,Broiler meat,Danish,257,14,5%,AmpC
2019,ESC E. coli,Food,19030693,Beef,Import,195,9,5%,ESBL
2019,ESC E. coli,Food,19030727,Pork,Danish,317,9,3%,AmpC
2019,ESC E. coli,Animal,19030957,Pigs,Danish,330,89,27%,AmpC
2019,ESC E. coli,Animal,19030958,Pigs,Danish,330,89,27%,AmpC
2019,ESC E. coli,Food,19031040,Beef,Import,195,9,5%,ESBL
2019,ESC E. coli,Food,19031066,Pork,Danish,317,9,3%,AmpC
2019,ESC E. coli,Food,19031074,Beef,Import,195,9,5%,ESBL
2019,ESC E. coli,Food,19031076,Beef,Danish,124,3,2%,AmpC
2019,ESC E. coli,Animal,19031154,Pigs,Danish,330,89,27%,AmpC
2019,ESC E. coli,Animal,19032535,Pigs,Danish,330,89,27%,AmpC
2019,ESC E. coli,Animal,19032536,Pigs,Danish,330,89,27%,AmpC
2019,ESC E. coli,Animal,19032537,Pigs,Danish,330,89,27%,AmpC
2019,ESC E. coli,Animal,19032541,Pigs,Danish,330,89,27%,AmpC
2019,ESC E. coli,Animal,19033734,Pigs,Danish,330,89,27%,ESBL
2019,ESC E. coli,Animal,19034064,Pigs,Danish,330,89,27%,ESBL
2019,ESC E. coli,Animal,19034317,Pigs,Danish,330,89,27%,AmpC
2019,ESC E. coli,Animal,19034318,Pigs,Danish,330,89,27%,AmpC
2019,ESC E. coli,Food,19034871,Beef,Danish,124,3,2%,AmpC
2019,ESC E. coli,Animal,19034927,Pigs,Danish,330,89,27%,ESBL
2019,ESC E. coli,Animal,19034928,Pigs,Danish,330,89,27%,ESBL
2019,ESC E. coli,Animal,19035083,Pigs,Danish,330,89,27%,AmpC
2019,ESC E. coli,Animal,19035428,Pigs,Danish,330,89,27%,AmpC
2019,ESC E. coli,Animal,19035430,Pigs,Danish,330,89,27%,ESBL
2019,ESC E. coli,Animal,19035433,Pigs,Danish,330,89,27%,AmpC
2019,ESC E. coli,Animal,19035436,Pigs,Danish,330,89,27%,AmpC
2019,ESC E. coli,Animal,19035437,Pigs,Danish,330,89,27%,AmpC
2019,ESC E. coli,Animal,19035438,Pigs,Danish,330,89,27%,ESBL
2019,ESC E. coli,Animal,19035856,Pigs,Danish,330,89,27%,AmpC
2019,ESC E. coli,Animal,19035857,Pigs,Danish,330,89,27%,AmpC
2019,ESC E. coli,Food,19035991,Broiler meat,Import,44,15,34%,AmpC
2019,ESC E. coli,Animal,19036014,Cattle,Danish,306,25,8%,AmpC
2019,ESC E. coli,Food,19036024,Broiler meat,Import,44,15,34%,AmpC
2019,ESC E. coli,Food,19036025,Broiler meat,Import,44,15,34%,AmpC
2019,ESC E. coli,Animal,19036385,Cattle,Danish,306,25,8%,Other
2019,ESC E. coli,Animal,19036497,Cattle,Danish,306,25,8%,ESBL
2019,ESC E. coli,Animal,19036498,Cattle,Danish,306,25,8%,AmpC
2019,ESC E. coli,Animal,19037673,Pigs,Danish,330,89,27%,AmpC
2019,ESC E. coli,Animal,19037675,Pigs,Danish,330,89,27%,AmpC
2019,ESC E. coli,Food,19038397,Broiler meat,Import,44,15,34%,AmpC
2019,ESC E. coli,Animal,19038848,Pigs,Danish,330,89,27%,ESBL
2019,ESC E. coli,Animal,19039901,Cattle,Danish,306,25,8%,ESBL
2019,ESC E. coli,Food,19040827,Pork,Danish,317,9,3%,AmpC
2019,ESC E. coli,Animal,19041334,Pigs,Danish,330,89,27%,AmpC
2019,ESC E. coli,Animal,19041417,Cattle,Danish,306,25,8%,ESBL
2019,ESC E. coli,Animal,19041419,Cattle,Danish,306,25,8%,AmpC
2019,ESC E. coli,Animal,19041541,Pigs,Danish,330,89,27%,AmpC
2019,ESC E. coli,Animal,19042244,Cattle,Danish,306,25,8%,AmpC
2019,ESC E. coli,Animal,19042593,Cattle,Danish,306,25,8%,ESBL
2019,ESC E. coli,Food,19043462,Broiler meat,Danish,257,14,5%,ESBL
2019,ESC E. coli,Animal,19043939,Cattle,Danish,306,25,8%,ESBL
2019,ESC E. coli,Food,19044369,Pork,Import,36,15,42%,ESBL
2019,ESC E. coli,Food,19044743,Beef,Danish,124,3,2%,AmpC
2019,ESC E. coli,Animal,19044810,Pigs,Danish,330,89,27%,AmpC
2019,ESC E. coli,Animal,19044811,Pigs,Danish,330,89,27%,AmpC
2019,ESC E. coli,Food,19044856,Beef,Import,195,9,5%,AmpC
2019,ESC E. coli,Animal,19044883,Pigs,Danish,330,89,27%,AmpC
2019,ESC E. coli,Food,19045127,Beef,Import,195,9,5%,ESBL
2019,ESC E. coli,Animal,19045215,Cattle,Danish,306,25,8%,ESBL
2019,ESC E. coli,Food,19045249,Beef,Import,195,9,5%,ESBL
2019,ESC E. coli,Food,19045758,Pork,Danish,317,9,3%,AmpC
2019,ESC E. coli,Animal,19046020,Pigs,Danish,330,89,27%,AmpC
2019,ESC E. coli,Animal,19046330,Cattle,Danish,306,25,8%,AmpC
2019,ESC E. coli,Food,19047384,Pork,Danish,317,9,3%,AmpC
2019,ESC E. coli,Animal,19048207,Pigs,Danish,330,89,27%,ESBL
2019,ESC E. coli,Animal,19048209,Pigs,Danish,330,89,27%,AmpC
2019,ESC E. coli,Food,19048531,Broiler meat,Import,44,15,34%,ESBL
2019,ESC E. coli,Food,19048808,Broiler meat,Import,44,15,34%,AmpC
2019,ESC E. coli,Food,19048812,Broiler meat,Danish,257,14,5%,AmpC
2019,ESC E. coli,Food,19049599,Pork,Import,36,15,42%,AmpC
2019,ESC E. coli,Food,19049600,Pork,Import,36,15,42%,ESBL
2019,ESC E. coli,Animal,19049965,Pigs,Danish,330,89,27%,AmpC
2019,ESC E. coli,Animal,19049985,Pigs,Danish,330,89,27%,AmpC
2019,ESC E. coli,Animal,19049986,Pigs,Danish,330,89,27%,AmpC
2019,ESC E. coli,Animal,19049987,Pigs,Danish,330,89,27%,AmpC
2019,ESC E. coli,Food,19051111,Pork,Import,36,15,42%,ESBL
2019,ESC E. coli,Food,19051751,Pork,Danish,317,9,3%,AmpC
2019,ESC E. coli,Food,19051766,Broiler meat,Import,44,15,34%,AmpC
2019,ESC E. coli,Food,19051767,Broiler meat,Import,44,15,34%,AmpC
2019,ESC E. coli,Animal,19053097,Pigs,Danish,330,89,27%,ESBL
2019,ESC E. coli,Food,19053973,Pork,Import,36,15,42%,ESBL
2019,ESC E. coli,Food,19054299,Broiler meat,Danish,257,14,5%,ESBL
2019,ESC E. coli,Animal,19054836,Cattle,Danish,306,25,8%,ESBL-AmpC
2019,ESC E. coli,Food,19054961,Pork,Danish,317,9,3%,ESBL
2019,ESC E. coli,Food,19055073,Broiler meat,Danish,257,14,5%,ESBL
2019,ESC E. coli,Food,19055074,Broiler meat,Danish,257,14,5%,ESBL
2019,ESC E. coli,Animal,19055501,Pigs,Danish,330,89,27%,AmpC
2020,ESC E. coli,Food,20007620,Broiler meat,Import,27,8,30%,AmpC
2020,ESC E. coli,Food,20007929,Broiler meat,Danish,309,8,3%,AmpC
2020,ESC E. coli,Food,20011211,Broiler meat,Danish,309,8,3%,AmpC
2020,ESC E. coli,Food,20011215,Broiler meat,Danish,309,8,3%,AmpC
2020,ESC E. coli,Food,20011267,Broiler meat,Danish,309,8,3%,AmpC
2020,ESC E. coli,Food,20011335,Broiler meat,Import,27,8,30%,ESBL
2020,ESC E. coli,Food,20011349,Broiler meat,Import,27,8,30%,ESBL
2020,ESC E. coli,Animal,20016831,Broilers,Danish,308,8,3%,ESBL
2020,ESC E. coli,Food,20019683,Broiler meat,Danish,309,8,3%,AmpC
2020,ESC E. coli,Food,20021645,Broiler meat,Import,27,8,30%,ESBL
2020,ESC E. coli,Animal,20023938,Broilers,Danish,308,8,3%,AmpC
2020,ESC E. coli,Animal,20023939,Broilers,Danish,308,8,3%,ESBL
2020,ESC E. coli,Animal,20023940,Broilers,Danish,308,8,3%,AmpC
2020,ESC E. coli,Animal,20024367,Broilers,Danish,308,8,3%,AmpC
2020,ESC E. coli,Animal,20027748,Broilers,Danish,308,8,3%,ESBL
2020,ESC E. coli,Animal,20038574,Broilers,Danish,308,8,3%,AmpC
2020,ESC E. coli,Food,20042982,Broiler meat,Import,27,8,30%,ESBL
2020,ESC E. coli,Food,20047164,Broiler meat,Import,27,8,30%,ESBL
2020,ESC E. coli,Food,20047170,Broiler meat,Danish,309,8,3%,ESBL
2020,ESC E. coli,Food,20047173,Broiler meat,Danish,309,8,3%,ESBL
2020,ESC E. coli,Food,20047176,Broiler meat,Danish,309,8,3%,ESBL
2020,ESC E. coli,Food,20048301,Broiler meat,Import,27,8,30%,ESBL
2020,ESC E. coli,Animal,20048723,Broilers,Danish,308,8,3%,AmpC
2020,ESC E. coli,Food,20049875,Broiler meat,Import,27,8,30%,ESBL
